Forecasting Project 1 - Group 7
…
#Convert to tsibble 
data_elec <- data_elec %>%
  mutate(Date = yearmonth(Date)) %>% #need to do this before converting to get proper format
  as_tsibble(index = Date)

#check that it's a tsibble now, and we can see it recognized the data is monthly because of the [1M] 
is_tsibble(data_elec)

## [1] TRUE

data_elec

## # A tsibble: 275 x 7 [1M]
##        Date Germany France Italy Austria Lichtenstein Total
##       <mth>   <dbl>  <dbl> <dbl>   <dbl>        <dbl> <dbl>
##  1 2000 Jan     421    313  1760       3           24  2521
##  2 2000 Feb     412    141  1757       4           23  2337
##  3 2000 Mar     459    148  1962       4           23  2596
##  4 2000 Apr     474    114  1767       3           17  2375
##  5 2000 May     935    116  1927      42           14  3034
##  6 2000 Jun     910    101  1895      31           13  2950
##  7 2000 Jul     510    105  1950      16           14  2595
##  8 2000 Aug     612    152  1275      39           14  2092
##  9 2000 Sep     354    320  1849      18           17  2558
## 10 2000 Oct     439    291  2295      28           20  3073
## # ℹ 265 more rows
…
